Introduction to specieshindex • specieshindex
…
Figure 1. The h-index, m-index, i10 index, and h5 index of the Woylie (Bettongia penicillata), Platypus (Ornithorhynchus anatinus), Koala (Phascolarctos cinereus), and Quokka (Setonix brachyurus).

To see the total output by year, you can use the functions getYear() and plotPub(). Below is an example using the same datasets as above. First, we need to extract the year from the output of Fetch() (or any other Fetch functions) with getYear(). Remember to supply the binomial name of the species.

extract_year_W <- getYear(data = Woylie,
                          genus = "Bettongia", species = "penicillata")
extract_year_W
#> # A tibble: 44 × 3
#>     Year  Freq spp                  
#>    <dbl> <int> <chr>                
#>  1  1977     1 Bettongia penicillata
#>  2  1978     0 Bettongia penicillata
#>  3  1979     1 Bettongia penicillata
#>  4  1980     1 Bettongia penicillata
#>  5  1981     0 Bettongia penicillata
#>  6  1982     0 Bettongia penicillata
#>  7  1983     0 Bettongia penicillata
#>  8  1984     0 Bettongia penicillata
#>  9  1985     2 Bettongia penicillata
#> 10  1986     1 Bettongia penicillata
#> # … with 34 more rows
…
